\select@language {spanish}
\contentsline {section}{\numberline {1}Pregunta}{4}{section.1}
\contentsline {subsection}{\numberline {1.1}2018-2019}{4}{subsection.1.1}
\contentsline {subsection}{\numberline {1.2}2017-2018}{4}{subsection.1.2}
\contentsline {section}{\numberline {2}Pregunta}{4}{section.2}
\contentsline {subsection}{\numberline {2.1}2018-2019}{4}{subsection.2.1}
\contentsline {subsection}{\numberline {2.2}2017-2018}{4}{subsection.2.2}
\contentsline {subsection}{\numberline {2.3}2016-2017}{4}{subsection.2.3}
\contentsline {subsection}{\numberline {2.4}2015-2016}{5}{subsection.2.4}
\contentsline {section}{\numberline {3}Pregunta}{5}{section.3}
\contentsline {subsection}{\numberline {3.1}2018-2019}{5}{subsection.3.1}
\contentsline {subsection}{\numberline {3.2}2017-2018}{5}{subsection.3.2}
\contentsline {subsection}{\numberline {3.3}2016-2017}{5}{subsection.3.3}
\contentsline {subsection}{\numberline {3.4}2015-2016}{5}{subsection.3.4}
\contentsline {section}{\numberline {4}Pregunta}{5}{section.4}
\contentsline {subsection}{\numberline {4.1}2018-2019}{5}{subsection.4.1}
\contentsline {subsection}{\numberline {4.2}2017-2018}{5}{subsection.4.2}
\contentsline {subsection}{\numberline {4.3}2016-2017}{6}{subsection.4.3}
\contentsline {subsection}{\numberline {4.4}2015-2016}{6}{subsection.4.4}
\contentsline {section}{\numberline {5}Pregunta}{6}{section.5}
\contentsline {subsection}{\numberline {5.1}2018-2019}{6}{subsection.5.1}
\contentsline {subsection}{\numberline {5.2}2017-2018}{6}{subsection.5.2}
\contentsline {subsection}{\numberline {5.3}2016-2017}{6}{subsection.5.3}
\contentsline {subsection}{\numberline {5.4}2015-2016}{6}{subsection.5.4}
\contentsline {section}{\numberline {6}Pregunta}{7}{section.6}
\contentsline {subsection}{\numberline {6.1}2018-2019}{7}{subsection.6.1}
\contentsline {subsection}{\numberline {6.2}2017-2018}{7}{subsection.6.2}
\contentsline {subsection}{\numberline {6.3}2016-2017}{7}{subsection.6.3}
\contentsline {subsection}{\numberline {6.4}2015-2016}{7}{subsection.6.4}
\contentsline {section}{\numberline {7}Pregunta}{7}{section.7}
\contentsline {subsection}{\numberline {7.1}2018-2019}{7}{subsection.7.1}
\contentsline {subsection}{\numberline {7.2}2017-2018}{7}{subsection.7.2}
\contentsline {subsection}{\numberline {7.3}2016-2017}{7}{subsection.7.3}
\contentsline {subsection}{\numberline {7.4}2015-2016}{8}{subsection.7.4}
\contentsline {section}{\numberline {8}Pregunta}{8}{section.8}
\contentsline {subsection}{\numberline {8.1}2018-2019}{8}{subsection.8.1}
\contentsline {subsection}{\numberline {8.2}2017-2018}{8}{subsection.8.2}
\contentsline {subsection}{\numberline {8.3}2016-2017}{8}{subsection.8.3}
\contentsline {subsection}{\numberline {8.4}2015-2016}{8}{subsection.8.4}
\contentsline {section}{\numberline {9}Corroborar respuesta correcta}{8}{section.9}
\contentsline {subsection}{\numberline {9.1}2018-2019}{8}{subsection.9.1}
\contentsline {subsection}{\numberline {9.2}2017-2018}{9}{subsection.9.2}
\contentsline {subsection}{\numberline {9.3}2016-2017}{9}{subsection.9.3}
\contentsline {subsection}{\numberline {9.4}2015-2016}{9}{subsection.9.4}
\contentsline {section}{\numberline {10}Exclusivas \IeC {\'u}ltimo examen}{9}{section.10}
\contentsline {section}{\numberline {11}Fin}{9}{section.11}
\contentsline {subsection}{\numberline {11.1}2017-2018}{9}{subsection.11.1}
\contentsline {subsection}{\numberline {11.2}2016-2017}{9}{subsection.11.2}
\contentsline {subsection}{\numberline {11.3}2015-2016}{10}{subsection.11.3}
\contentsline {section}{\numberline {12}Exclusivas de los dos primeros ex\IeC {\'a}menes}{10}{section.12}
\contentsline {subsection}{\numberline {12.1}2016-2017}{10}{subsection.12.1}
\contentsline {subsection}{\numberline {12.2}2015-2016}{10}{subsection.12.2}
\contentsline {section}{\numberline {13}Pregunta}{10}{section.13}
\contentsline {subsection}{\numberline {13.1}2016-2017}{10}{subsection.13.1}
\contentsline {subsection}{\numberline {13.2}2015-2016}{10}{subsection.13.2}
\contentsline {section}{\numberline {14}Pregunta}{10}{section.14}
\contentsline {subsection}{\numberline {14.1}2016-2017}{10}{subsection.14.1}
\contentsline {subsection}{\numberline {14.2}2015-2016}{10}{subsection.14.2}
\contentsline {section}{\numberline {15}Pregunta}{11}{section.15}
\contentsline {subsection}{\numberline {15.1}2016-2017}{11}{subsection.15.1}
\contentsline {subsection}{\numberline {15.2}2015-2016}{11}{subsection.15.2}
\contentsline {section}{\numberline {16}Pregunta}{11}{section.16}
\contentsline {subsection}{\numberline {16.1}2016-2017}{11}{subsection.16.1}
\contentsline {subsection}{\numberline {16.2}2015-2016}{11}{subsection.16.2}
\contentsline {section}{\numberline {17}Pregunta}{11}{section.17}
\contentsline {subsection}{\numberline {17.1}2016-2017}{11}{subsection.17.1}
\contentsline {subsection}{\numberline {17.2}2015-2016}{11}{subsection.17.2}
\contentsline {section}{\numberline {18}Pregunta}{12}{section.18}
\contentsline {subsection}{\numberline {18.1}2016-2017}{12}{subsection.18.1}
\contentsline {subsection}{\numberline {18.2}2015-2016}{12}{subsection.18.2}
\contentsline {section}{\numberline {19}Exclusivas del primer examen}{12}{section.19}
