\BOOKMARK [1][-]{section.1}{Ejercicios Clase}{}% 1
\BOOKMARK [2][-]{subsection.1.1}{Ejercicio 1}{section.1}% 2
\BOOKMARK [2][-]{subsection.1.2}{Ejercicio 3 - Nota programaci\363n}{section.1}% 3
\BOOKMARK [3][-]{subsubsection.1.2.1}{Tabla de la verdad}{subsection.1.2}% 4
\BOOKMARK [2][-]{subsection.1.3}{Ejercicio 4 - Mili}{section.1}% 5
\BOOKMARK [2][-]{subsection.1.4}{Ejercicio 5 - Seguro}{section.1}% 6
\BOOKMARK [2][-]{subsection.1.5}{Ejercicio 6 - Venta de art\355culos}{section.1}% 7
\BOOKMARK [2][-]{subsection.1.6}{Ejercicio 7 - Promoci\363n de curso}{section.1}% 8
\BOOKMARK [2][-]{subsection.1.7}{Ejercicio 8 - Envases}{section.1}% 9
\BOOKMARK [2][-]{subsection.1.8}{Ejercicio 9 - Previsi\363n del tiempo}{section.1}% 10
\BOOKMARK [2][-]{subsection.1.9}{Ejercicio 10 - Bolsa}{section.1}% 11
\BOOKMARK [3][-]{subsubsection.1.9.1}{Versi\363n Alfredo \(MAL\)}{subsection.1.9}% 12
\BOOKMARK [3][-]{subsubsection.1.9.2}{Versi\363n M.J. \277BIEN?}{subsection.1.9}% 13
\BOOKMARK [2][-]{subsection.1.10}{Ejercicio 11 - N\363minas empleados}{section.1}% 14
\BOOKMARK [2][-]{subsection.1.11}{Ejercicio 12 - Facturaci\363n clientes}{section.1}% 15
\BOOKMARK [2][-]{subsection.1.12}{Ejercicio 13 - Productos de cr\351dito de un banco}{section.1}% 16
\BOOKMARK [2][-]{subsection.1.13}{Ejercicio 14 - Entrega de libros \(a\351reo/terrestre\)}{section.1}% 17
\BOOKMARK [2][-]{subsection.1.14}{Ejercicio 15 - Modificaci\363n entrega de libros \(a\351reo/terrestre\)}{section.1}% 18
\BOOKMARK [2][-]{subsection.1.15}{Ejercicio 16 - M\363dulos de una asignatura}{section.1}% 19
\BOOKMARK [1][-]{section.2}{Ejercicios Ex\341menes Pasados}{}% 20
\BOOKMARK [2][-]{subsection.2.1}{Examen Tema 1 2018/2019}{section.2}% 21
\BOOKMARK [3][-]{subsubsection.2.1.1}{Ejercicio 1}{subsection.2.1}% 22
\BOOKMARK [3][-]{subsubsection.2.1.2}{Ejercicio 2}{subsection.2.1}% 23
